232
295
383
577
647
630
550
474
417
389
372
367
380
373
372
379
372
346
338
316
298
263
236
216
214
244
311
492
653
694
618
524
452
405
393
386
379
378
375
381
380
341
281
220
156
123
138
195
265
360
568
725
744
637
538
449
414
394
379
374
371
373
380
384