331
359
380
394
417
421
407
404
377
375
348
309
251
261
291
332
357
394
434
417
403
388
375
380
378
400
399
385
372
371
375
415
416
400
373
335
291
248
237
249
273
286
305
361
408
409
355
333
397
429
405
388
371
368
363
368
376
391
409
412
412
344
286
247
253