348
416
431
427
426
408
402
385
359
328
323
348
358
379
400
445
494
500
483
459
403
328
294
303
302
296
312
361
357
376
360
345
335
332
315
290
276
288
298
321
377
409
400
398
396
360
299
278
281
303
340
385
417
429
412
399
373
350
338
338
351
369
402
439