307
371
559
680
709
680
609
553
495
455
417
398
394
406
453
444
399
380
364
270
229
264
336
465
644
730
707
628
570
511
461
434
419
408
406
451
449
400
377
341
232
225
265
343
431
572
717
718
679
591
508
457
441
410
408
441
487
462
442
434
312
272
301
380