573
590
571
502
452
400
380
374
375
378
388
409
415
385
362
323
282
239
244
278
304
343
448
524
553
551
522
476
423
414
425
435
413
398
372
355
360
335
282
235
211
241
305
339
464
537
572
579
562
490
425
387
373
370
354
350
279
220
233
274
300
368
419
482