391
360
372
399
423
514
596
564
453
334
230
193
245
329
404
539
669
749
711
592
449
357
366
400
427
433
498
601
570
492
327
160
188
276
368
469
614
704
713
631
505
408
390
406
434
468
564
553
465
365
262
214
255
339
404
537
668
715
661
520
378
360
369
394