310
334
364
354
325
292
277
281
300
312
316
324
320
325
328
358
379
387
408
394
366
346
336
335
340
344
383
413
412
396
379
389
389
378
371
363
370
371
366
376
398
390
336
290
289
304
324
332
345
375
427
386
388
430
443
435
423
402
397
384
381
374
384
386