254
329
468
696
747
709
618
446
317
296
319
353
385
502
564
507
434
324
200
173
242
330
477
650
735
709
603
451
331
314
330
381
421
567
589
530
479
358
234
208
272
369
566
696
716
653
565
394
314
327
360
400
425
525
621
591
464
368
243
191
259
338
434
589