745
732
641
483
373
355
366
393
409
533
593
546
448
345
231
177
214
291
433
635
733
714
600
440
354
351
383
410
440
559
588
531
423
332
239
221
284
355
463
631
709
694
603
479
378
363
406
415
439
497
578
514
440
271
144
193
295
386
559
677
717
691
601
474