593
601
524
415
279
180
188
271
363
534
702
785
735
614
440
346
351
369
399
445
608
597
524
440
295
169
198
283
367
463
639
739
748
664
568
408
326
343
379
401
458
586
520
427
318
234
231
299
379
481
653
733
727
636
493
373
343
380
393
418
534
590
500
393