423
344
250
238
293
353
426
493
587
690
658
578
495
446
434
431
440
453
504
534
476
374
240
206
262
343
419
503
628
704
659
600
529
478
453
442
440
451
477
502
424
289
198
211
292
374
445
539
645
686
678
605
514
445
428
426
438
450
475
526
508
411
291
223