510
411
369
369
392
437
503
513
416
312
182
171
248
327
409
515
629
692
666
586
500
417
406
420
441
468
537
560
528
397
284
249
307
375
453
629
758
784
721
612
479
399
365
362
378
458
477
424
346
224
141
186
271
367
504
647
708
687
609
464
406
379
396
418