395
395
396
392
396
400
399
398
395
394
404
410
412
411
408
411
410
411
407
402
414
410
415
431
442
458
480
497
515
488
480
466
437
417
395
375
359
350
341
334
337
320
332
329
330
335
335
346
342
344
349
353
352
362
375
368
370
367
373
376
378
379
379
381