416
429
415
405
407
396
398
394
387
381
386
383
381
380
381
399
399
402
420
410
416
424
429
428
425
416
418
409
394
386
388
385
378
378
381
388
376
385
387
378
378
380
384
387
388
389
401
400
415
433
468
473
490
506
499
474
446
406
384
366
350
346
344
348