406
411
400
402
402
403
402
406
414
420
419
420
420
431
425
425
420
412
412
414
406
403
395
388
402
394
393
393
390
392
397
409
402
399
397
408
405
406
414
399
410
416
411
411
413
411
410
416
406
412
401
403
406
403
400
395
399
398
397
399
408
403
402
404