403
407
407
405
407
401
403
410
402
406
412
403
406
407
417
404
402
414
409
408
406
406
410
407
403
403
400
402
407
408
411
414
398
402
405
404
403
400
405
404
403
398
406
396
402
403
404
403
400
405
408
416
425
432
446
460
469
472
482
467
467
462
448
440