377
380
383
390
377
383
386
387
382
379
385
396
391
387
391
381
383
383
393
385
387
400
395
393
393
395
406
399
396
409
397
395
398
396
399
399
398
404
405
408
417
407
412
414
414
412
414
422
410
409
405
407
418
406
401
398
397
391
392
397
398
397
395
392