470
449
447
463
452
461
448
447
445
442
444
449
450
453
455
454
468
489
506
522
551
542
526
513
453
417
403
396
379
374
372
381
399
397
406
407
419
426
428
430
433
439
449
465
501
502
515
517
506
488
450
423
405
414
411
388
395
402
410
419
421
427
443
433