376
377
378
378
380
384
384
385
383
379
389
383
386
387
386
386
391
392
399
386
383
385
389
390
389
402
386
391
391
386
385
381
384
385
386
390
382
378
381
379
379
379
378
376
377
376
373
377
364
368
378
369
368
364
364
371
362
360
366
357
361
361
360
361