359
353
349
355
352
355
356
356
354
359
361
358
357
353
355
358
369
360
359
357
360
360
359
360
361
359
364
367
367
367
365
373
368
370
371
371
368
377
375
373
373
370
373
382
377
378
375
376
373
372
383
375
371
374
376
376
371
369
366
370
370
371
372
369