439
455
438
436
433
438
438
438
438
447
436
438
442
441
437
439
440
439
437
435
435
448
441
438
435
434
439
443
446
441
446
439
441
442
443
451
438
440
440
446
446
436
439
439
441
436
436
439
450
438
437
436
440
461
440
438
436
441
441
444
436
431
435
438