412
400
406
411
415
419
432
422
427
430
430
448
430
434
433
451
433
430
434
453
432
431
431
444
434
432
447
424
434
434
430
434
426
428
428
428
432
434
430
431
434
433
429
429
447
435
433
429
429
436
433
432
448
442
434
435
434
434
433
444
458
491
498
519