433
433
455
447
454
461
483
466
469
471
470
487
462
463
449
445
440
426
422
427
444
427
422
413
418
389
376
370
375
386
403
426
456
449
461
487
471
475
492
473
473
475
475
461
458
477
463
460
454
449
452
462
457
463
444
449
454
444
439
434
444
438
454
434