447
437
427
432
461
465
495
528
563
575
541
488
413
358
326
311
315
322
344
351
381
383
407
423
460
457
466
467
472
477
480
474
470
470
472
477
465
456
451
452
449
446
444
440
441
437
437
433
428
429
431
432
431
427
441
432
432
429
421
419
422
423
424
425