421
421
421
427
430
436
446
428
433
446
452
438
442
454
467
481
487
489
493
482
470
460
436
423
422
416
415
410
410
423
432
415
420
422
445
479
501
513
525
526
525
507
499
512
497
469
425
367
322
282
279
293
323
345
371
411
435
463
482
499
492
495
496
495