465
460
460
461
462
470
466
450
464
449
444
437
424
434
418
417
420
416
424
427
432
445
449
441
447
458
454
453
455
456
458
456
452
464
448
447
443
435
422
417
412
423
410
413
432
421
421
425
451
449
473
497
529
527
533
522
505
466
437
412
400
396
394
394